﻿Vaidotas Strazdas, Programų sistemos, IV kursas, III grupė. Backward Chaining duomenys
1) Taisyklės
R1: E -> G
R2: F -> B
R3: D -> Z 
R4: C -> D 
R5: B -> C 
R6: A -> B 
R7: A -> G 
R8: G -> Z

2) Faktai
A, B, C

3) Tikslas
Z